{
	"info": {
		"_postman_id": "b5265fe8-d743-434e-a667-4f2e80545828",
		"name": "Hep Desk Api",
		"schema": "https://schema.getpostman.com/json/collection/v2.1.0/collection.json"
	},
	"item": [
		{
			"name": "Ticket",
			"item": [
				{
					"name": "Search Tickets",
					"item": [
						{
							"name": "By Name Issuer",
							"request": {
								"method": "GET",
								"header": [],
								"url": {
									"raw": "{{URL}}/ticket/byNameIssuer?name=joao",
									"host": [
										"{{URL}}"
									],
									"path": [
										"ticket",
										"byNameIssuer"
									],
									"query": [
										{
											"key": "name",
											"value": "joao"
										}
									]
								}
							},
							"response": []
						},
						{
							"name": "By Name Responder",
							"request": {
								"method": "GET",
								"header": [],
								"url": {
									"raw": "{{URL}}/ticket/byNameResponder?name=pedro",
									"host": [
										"{{URL}}"
									],
									"path": [
										"ticket",
										"byNameResponder"
									],
									"query": [
										{
											"key": "name",
											"value": "pedro"
										}
									]
								}
							},
							"response": []
						},
						{
							"name": "By Name Issuer Or Name Responder",
							"request": {
								"method": "GET",
								"header": [],
								"url": {
									"raw": "{{URL}}/ticket/byNameIssuerOrNameResponder?name=pedro",
									"host": [
										"{{URL}}"
									],
									"path": [
										"ticket",
										"byNameIssuerOrNameResponder"
									],
									"query": [
										{
											"key": "name",
											"value": "pedro"
										}
									]
								}
							},
							"response": []
						}
					]
				},
				{
					"name": "List Tickets",
					"request": {
						"method": "GET",
						"header": [],
						"url": {
							"raw": "{{URL}}/ticket",
							"host": [
								"{{URL}}"
							],
							"path": [
								"ticket"
							]
						}
					},
					"response": []
				},
				{
					"name": "Show Ticket",
					"request": {
						"method": "GET",
						"header": [],
						"url": {
							"raw": "{{URL}}/ticket/:ticket_id",
							"host": [
								"{{URL}}"
							],
							"path": [
								"ticket",
								":ticket_id"
							],
							"variable": [
								{
									"key": "ticket_id",
									"value": "2"
								}
							]
						}
					},
					"response": []
				},
				{
					"name": "Create Ticket",
					"request": {
						"method": "POST",
						"header": [],
						"body": {
							"mode": "raw",
							"raw": "{\n    \"name_issuer\": \"Joao Test\",\n    \"email_issuer\": \"joao_test@test.com\",\n    \"name_responder\": \"Pedro Test\",\n    \"email_responder\": \"pedro_test@test.com\",\n    \"title\": \"Bug X voltou a acontecer\",\n    \"description\": \"Nossos clientes estão relatando a ocorrência do antigo bug X, favor verificar.\"\n}",
							"options": {
								"raw": {
									"language": "json"
								}
							}
						},
						"url": {
							"raw": "{{URL}}/ticket",
							"host": [
								"{{URL}}"
							],
							"path": [
								"ticket"
							]
						}
					},
					"response": []
				},
				{
					"name": "Update Ticket",
					"request": {
						"method": "PUT",
						"header": [],
						"body": {
							"mode": "raw",
							"raw": "{\n    \"id\": 3,\n    \"name_issuer\": \"Joao Test\",\n    \"email_issuer\": \"joao_test@test.com\",\n    \"name_responder\": \"Pedro Test\",\n    \"email_responder\": \"pedro_test@test.com\",\n    \"title\": \"Bug Y voltou a acontecer\",\n    \"description\": \"Nossos clientes estão relatando a ocorrência do antigo bug Y, favor verificar.\",\n    \"status\": 2 // 1 (aberto) - 2 (fechado)\n}",
							"options": {
								"raw": {
									"language": "json"
								}
							}
						},
						"url": {
							"raw": "{{URL}}/ticket",
							"host": [
								"{{URL}}"
							],
							"path": [
								"ticket"
							]
						}
					},
					"response": []
				}
			]
		}
	]
}